<?xml version="1.0" encoding="iso-8859-1"?>
<!-- Generator: Adobe Illustrator 19.0.0, SVG Export Plug-In . SVG Version: 6.00 Build 0)  -->
<svg version="1.1" id="Capa_1" xmlns="http://www.w3.org/2000/svg" xmlns:xlink="http://www.w3.org/1999/xlink" x="0px" y="0px"
	 viewBox="0 0 512.001 512.001" style="enable-background:new 0 0 512.001 512.001;" xml:space="preserve">
<path style="fill:#8ADD8A;" d="M302.142,40.759c-16.47-16.471-39.944-23.474-62.792-18.744c-3.023,0.626-5.385,2.988-6.011,6.011
	c-4.732,22.849,2.274,46.323,18.743,62.793c0,0,0,0,0.001,0c13.083,13.082,30.585,20.194,48.683,20.194
	c4.684,0,9.411-0.477,14.109-1.449c3.023-0.626,5.385-2.988,6.011-6.011C325.619,80.702,318.612,57.228,302.142,40.759z"/>
<path style="fill:#54D195;" d="M487.328,27.881h-36.661c-64.275,0-116.565,52.291-116.565,116.565v25.326
	c0,4.276,3.465,7.742,7.742,7.742h36.661c64.275,0,116.565-52.291,116.565-116.565V35.623
	C495.07,31.347,491.604,27.881,487.328,27.881z"/>
<path style="fill:#39B375;" d="M433.907,84.882c-2.899-3.143-7.797-3.342-10.94-0.444l-86.37,79.641
	c-0.036,0.033-0.066,0.07-0.101,0.103c-0.103,0.098-0.201,0.2-0.298,0.305c-0.081,0.086-0.161,0.172-0.237,0.261
	c-0.085,0.099-0.164,0.201-0.244,0.305c-0.077,0.1-0.155,0.199-0.226,0.302c-0.07,0.101-0.134,0.205-0.2,0.31
	c-0.068,0.109-0.137,0.217-0.199,0.328c-0.062,0.109-0.117,0.223-0.172,0.337c-0.055,0.11-0.11,0.22-0.16,0.331
	c-0.054,0.122-0.1,0.247-0.148,0.373c-0.041,0.107-0.083,0.215-0.119,0.324c-0.043,0.131-0.078,0.265-0.115,0.398
	c-0.029,0.109-0.06,0.218-0.085,0.327c-0.029,0.131-0.052,0.265-0.074,0.399c-0.02,0.119-0.04,0.236-0.054,0.356
	c-0.016,0.125-0.025,0.251-0.033,0.378c-0.009,0.133-0.018,0.266-0.021,0.399c-0.001,0.053-0.008,0.102-0.008,0.155v152.918
	c0,4.276,3.465,7.742,7.742,7.742c4.277,0,7.742-3.466,7.742-7.742V173.163l83.876-77.342
	C436.606,92.923,436.804,88.025,433.907,84.882z"/>
<path style="fill:#C99363;" d="M468.076,323.401c-7.358-31.374-25.366-59.775-50.706-79.972
	c-25.721-20.501-58.04-31.635-90.988-31.456c-30.152,0.198-58.982,9.583-83.374,27.14c-23.846,17.164-41.706,40.789-51.652,68.319
	c-1.163,3.221-0.073,6.822,2.681,8.857l90.28,66.714c1.332,0.985,2.945,1.515,4.601,1.515h64.585c1.164,0,2.313-0.262,3.363-0.768
	L463.9,332.142C467.169,330.567,468.905,326.933,468.076,323.401z"/>
<path style="fill:#BA7F4F;" d="M468.076,323.401c-7.358-31.374-25.366-59.775-50.706-79.972
	c-24.886-19.836-55.948-30.901-87.782-31.436c23.466,0.537,46.365,11.601,64.71,31.436c18.68,20.197,31.955,48.599,37.378,79.972
	c0.611,3.531-0.669,7.166-3.078,8.741l-78.902,51.608c-0.773,0.506-1.621,0.768-2.478,0.768h6.285c1.164,0,2.313-0.262,3.363-0.768
	l107.034-51.608C467.169,330.567,468.905,326.933,468.076,323.401z"/>
<path style="fill:#FFD2C0;" d="M502.21,334.976l-136.993,73.428h-91.855l-72.444-43.961l-79.282,48.535L61.795,311.38
	l114.469-71.714h135.385c14.234,0,25.771,11.539,25.771,25.772l0,0c0,14.234-11.539,25.771-25.771,25.771h-63.491l93.672,58.59
	l145.857-47.983c2.041-0.744,4.126-1.087,6.182-1.087c6.853,0,13.363,3.918,16.417,10.458
	C514.411,320.005,510.851,330.492,502.21,334.976z"/>
<path style="fill:#F4AE98;" d="M502.21,319.325l-136.993,61.37h-91.855l-72.444-36.742l-79.283,40.565l-54.084-76.745l-5.757,3.607
	l59.841,101.598l79.283-48.535l72.444,43.961h91.855l136.993-73.428c8.441-4.381,12.012-14.487,8.327-23.173
	C508.943,314.935,506.096,317.64,502.21,319.325z"/>
<polygon style="fill:#FF5F5F;" points="73.454,292.978 0,336.243 0,491.435 141.319,408.199 "/>
<polygon style="fill:#E24B4B;" points="126.259,382.63 0,456.997 0,491.435 141.319,408.199 "/>
<path style="fill:#EF737A;" d="M180.522,419.303L82.751,253.307c-2.169-3.684-6.914-4.91-10.6-2.742l-57.986,34.153
	c-1.769,1.043-3.051,2.745-3.565,4.732s-0.218,4.098,0.825,5.867l97.772,165.996c1.442,2.451,4.025,3.814,6.678,3.814
	c1.336,0,2.688-0.346,3.923-1.073l57.985-34.153C181.465,427.733,182.692,422.987,180.522,419.303z"/>
<path style="fill:#EB6063;" d="M180.522,419.303l-14.888-25.277c-0.153,0.103-0.301,0.21-0.462,0.305l-66.99,39.457
	c-1.407,0.828-2.947,1.224-4.471,1.235l15.485,26.291c1.442,2.451,4.025,3.814,6.678,3.814c1.336,0,2.688-0.346,3.923-1.073
	l57.985-34.153C181.465,427.733,182.692,422.987,180.522,419.303z"/>
<g>
</g>
<g>
</g>
<g>
</g>
<g>
</g>
<g>
</g>
<g>
</g>
<g>
</g>
<g>
</g>
<g>
</g>
<g>
</g>
<g>
</g>
<g>
</g>
<g>
</g>
<g>
</g>
<g>
</g>
</svg>
