<svg width="360" height="118" viewBox="0 0 360 118" fill="none" xmlns="http://www.w3.org/2000/svg">
<path d="M99.7327 97.2366C80.9235 81.4058 71.3001 50.1838 85.7351 33.0337C96.411 20.3498 62.2995 -16.1121 39.8056 -36.6031C38.0559 -38.1632 33.4192 -42.1628 28.87 -45.6808L328.943 -41.2833C324.277 -33.661 310.921 -13.8432 294.824 4.45026C274.702 27.317 284.763 71.7314 280.389 97.2366C276.889 117.641 224.107 119.224 198.153 117.465C171.616 115.999 114.78 109.901 99.7327 97.2366Z" fill="#476430"/>
<path d="M150.911 77.4481C139.713 103.833 45.6379 104.566 0 101.634V-47H360V101.634C347.402 113.947 286.513 90.6404 257.643 77.4481C226.731 66.4544 162.109 51.0633 150.911 77.4481Z" fill="#226730"/>
<path d="M166.659 60.298C111.018 31.8024 98.8578 -23.1071 99.7327 -47H358.688V41.8286C358.25 52.8223 342.241 76.7445 281.701 84.484C237.521 69.9724 236.209 95.9174 166.659 60.298Z" fill="#45BF60"/>
</svg>
